Lab 06_Part3/cpu_wavedata.vcd
$date
	Wed Dec  2 09:36:08 2020
$end
$version
	Icarus Verilog
$end
$timescale
	100ps
$end
$scope module testbench4 $end
$scope module mycpu $end
$scope module myregfile $end
$var reg 8 ! \registers[0] [7:0] $end
$upscope $end
$upscope $end
$upscope $end
$scope module testbench4 $end
$scope module mycpu $end
$scope module myregfile $end
$var reg 8 " \registers[1] [7:0] $end
$upscope $end
$upscope $end
$upscope $end
$scope module testbench4 $end
$scope module mycpu $end
$scope module myregfile $end
$var reg 8 # \registers[2] [7:0] $end
$upscope $end
$upscope $end
$upscope $end
$scope module testbench4 $end
$scope module mycpu $end
$scope module myregfile $end
$var reg 8 $ \registers[3] [7:0] $end
$upscope $end
$upscope $end
$upscope $end
$scope module testbench4 $end
$scope module mycpu $end
$scope module myregfile $end
$var reg 8 % \registers[4] [7:0] $end
$upscope $end
$upscope $end
$upscope $end
$scope module testbench4 $end
$scope module mycpu $end
$scope module myregfile $end
$var reg 8 & \registers[5] [7:0] $end
$upscope $end
$upscope $end
$upscope $end
$scope module testbench4 $end
$scope module mycpu $end
$scope module myregfile $end
$var reg 8 ' \registers[6] [7:0] $end
$upscope $end
$upscope $end
$upscope $end
$scope module testbench4 $end
$scope module mycpu $end
$scope module myregfile $end
$var reg 8 ( \registers[7] [7:0] $end
$upscope $end
$upscope $end
$upscope $end
$scope module testbench4 $end
$scope module mydata_memory $end
$var reg 8 ) \memory_array[0] [7:0] $end
$upscope $end
$upscope $end
$scope module testbench4 $end
$scope module mydata_memory $end
$var reg 8 * \memory_array[1] [7:0] $end
$upscope $end
$upscope $end
$scope module testbench4 $end
$scope module mydata_memory $end
$var reg 8 + \memory_array[2] [7:0] $end
$upscope $end
$upscope $end
$scope module testbench4 $end
$scope module mydata_memory $end
$var reg 8 , \memory_array[3] [7:0] $end
$upscope $end
$upscope $end
$scope module testbench4 $end
$scope module mydata_memory $end
$var reg 8 - \memory_array[4] [7:0] $end
$upscope $end
$upscope $end
$scope module testbench4 $end
$scope module mydata_memory $end
$var reg 8 . \memory_array[5] [7:0] $end
$upscope $end
$upscope $end
$scope module testbench4 $end
$scope module mydata_memory $end
$var reg 8 / \memory_array[6] [7:0] $end
$upscope $end
$upscope $end
$scope module testbench4 $end
$scope module mydata_memory $end
$var reg 8 0 \memory_array[7] [7:0] $end
$upscope $end
$upscope $end
$scope module testbench4 $end
$var wire 128 1 insmreaddata [127:0] $end
$var wire 1 2 insmread $end
$var wire 1 3 insmbusywait $end
$var wire 6 4 insmaddress [5:0] $end
$var wire 1 5 WRITE_SIGNAL $end
$var wire 8 6 RESULT [7:0] $end
$var wire 1 7 READ_SIGNAL $end
$var wire 8 8 READDATA [7:0] $end
$var wire 32 9 PC [31:0] $end
$var wire 8 : OUT1 [7:0] $end
$var wire 32 ; MWRITEDATA [31:0] $end
$var wire 32 < MREADDATA [31:0] $end
$var wire 1 = MEMWRITE $end
$var wire 1 > MEMREAD $end
$var wire 1 ? MEMBUSYWAIT $end
$var wire 6 @ MADDRESS [5:0] $end
$var wire 1 A INS_BUSYWAIT $end
$var wire 32 B INSTRUCTION [31:0] $end
$var wire 1 C BUSY_WAIT $end
$var reg 1 D CLK $end
$var reg 1 E RESET $end
$scope module mycpu $end
$var wire 1 D CLK $end
$var wire 1 E RESET $end
$var wire 1 F mux_select2 $end
$var wire 1 G mux_select1 $end
$var wire 1 5 mem_write $end
$var wire 8 H mem_readdata [7:0] $end
$var wire 1 7 mem_read $end
$var wire 1 I is_Decode $end
$var wire 1 J ZERO $end
$var wire 1 K WRITESELECT $end
$var wire 1 L WRITEENABLE $end
$var wire 8 M RESULT [7:0] $end
$var wire 3 N OUT2ADDRESS [2:0] $end
$var wire 8 O OUT2 [7:0] $end
$var wire 3 P OUT1ADDRESS [2:0] $end
$var wire 8 Q OUT1 [7:0] $end
$var wire 32 R OFFSET [31:0] $end
$var wire 1 A INS_BUSYWAIT $end
$var wire 32 S INSTRUCTION [31:0] $end
$var wire 3 T IN [2:0] $end
$var wire 8 U IMMEDIATE [7:0] $end
$var wire 1 C BUSYWAIT $end
$var wire 1 V BRANCH $end
$var wire 3 W ALUOP [2:0] $end
$var reg 32 X BRANCHTARGET [31:0] $end
$var reg 8 Y M_data [7:0] $end
$var reg 32 Z PC [31:0] $end
$var reg 8 [ WRITEDATA [7:0] $end
$var reg 1 \ getPC $end
$var reg 32 ] inter_PC [31:0] $end
$var reg 8 ^ mux1out [7:0] $end
$var reg 8 _ mux2out [7:0] $end
$var reg 32 ` updated_PC [31:0] $end
$scope module myalu $end
$var wire 8 a DATA2 [7:0] $end
$var wire 8 b or_o [7:0] $end
$var wire 8 c forward_o [7:0] $end
$var wire 8 d and_o [7:0] $end
$var wire 8 e add_o [7:0] $end
$var wire 1 J ZERO $end
$var wire 3 f SELECT [2:0] $end
$var wire 8 g DATA1 [7:0] $end
$var reg 8 h RESULT [7:0] $end
$scope module add_ $end
$var wire 8 i DATA2 [7:0] $end
$var wire 8 j RESULT [7:0] $end
$var wire 8 k DATA1 [7:0] $end
$upscope $end
$scope module and_ $end
$var wire 8 l DATA2 [7:0] $end
$var wire 8 m RESULT [7:0] $end
$var wire 8 n DATA1 [7:0] $end
$upscope $end
$scope module forward $end
$var wire 8 o DATA2 [7:0] $end
$var wire 8 p RESULT [7:0] $end
$upscope $end
$scope module or_ $end
$var wire 8 q DATA2 [7:0] $end
$var wire 8 r RESULT [7:0] $end
$var wire 8 s DATA1 [7:0] $end
$upscope $end
$scope module zero_m $end
$var wire 8 t RESULT [7:0] $end
$var wire 1 J ZERO $end
$var wire 1 u a $end
$var wire 1 v b $end
$var wire 1 w c $end
$var wire 1 x d $end
$var wire 1 y e $end
$var wire 1 z f $end
$upscope $end
$upscope $end
$scope module mycu $end
$var wire 1 D CLK $end
$var wire 32 { PC [31:0] $end
$var wire 1 E RESET $end
$var wire 32 | INSTRUCTION [31:0] $end
$var wire 1 C BUSYWAIT $end
$var reg 1 V B_TARGET $end
$var reg 8 } IMM [7:0] $end
$var reg 3 ~ IN [2:0] $end
$var reg 32 !" JUMP [31:0] $end
$var reg 3 "" OUT1ADDRESS [2:0] $end
$var reg 3 #" OUT2ADDRESS [2:0] $end
$var reg 3 $" SELECT [2:0] $end
$var reg 1 G SELECT1 $end
$var reg 1 F SELECT2 $end
$var reg 1 L WRITEENABLE $end
$var reg 1 K WRITESELECT $end
$var reg 1 I is_Decode $end
$var reg 1 7 mem_read $end
$var reg 1 5 mem_write $end
$var integer 32 %" i [31:0] $end
$upscope $end
$scope module myregfile $end
$var wire 1 D CLK $end
$var wire 8 &" IN [7:0] $end
$var wire 3 '" INADDRESS [2:0] $end
$var wire 3 (" OUT1ADDRESS [2:0] $end
$var wire 3 )" OUT2ADDRESS [2:0] $end
$var wire 1 E RESET $end
$var wire 1 L WRITE $end
$var reg 8 *" OUT1 [7:0] $end
$var reg 8 +" OUT2 [7:0] $end
$var reg 1 ," finishWrite $end
$var reg 8 -" interOUT1 [7:0] $end
$var reg 8 ." interOUT2 [7:0] $end
$var integer 32 /" i [31:0] $end
$var integer 32 0" idx [31:0] $end
$upscope $end
$upscope $end
$scope module mydata_memory $end
$var wire 1 D clock $end
$var wire 1 E reset $end
$var wire 32 1" writedata [31:0] $end
$var wire 1 = write $end
$var wire 1 > read $end
$var wire 6 2" address [5:0] $end
$var reg 1 ? busywait $end
$var reg 1 3" readaccess $end
$var reg 32 4" readdata [31:0] $end
$var reg 1 5" writeaccess $end
$var integer 32 6" i [31:0] $end
$var integer 32 7" idx [31:0] $end
$upscope $end
$scope module mydcache $end
$var wire 8 8" address [7:0] $end
$var wire 1 D clock $end
$var wire 1 9" hit $end
$var wire 1 ? mem_busy_wait $end
$var wire 32 :" mem_read_data [31:0] $end
$var wire 1 7 read $end
$var wire 1 E reset $end
$var wire 1 5 write $end
$var wire 8 ;" write_data [7:0] $end
$var reg 1 C busy_wait $end
$var reg 32 <" cache_block [31:0] $end
$var reg 1 =" dirty $end
$var reg 3 >" index [2:0] $end
$var reg 6 ?" mem_address [5:0] $end
$var reg 1 > mem_read $end
$var reg 1 = mem_write $end
$var reg 32 @" mem_write_data [31:0] $end
$var reg 3 A" next_state [2:0] $end
$var reg 2 B" offset [1:0] $end
$var reg 1 C" read_access $end
$var reg 8 D" read_data [7:0] $end
$var reg 3 E" state [2:0] $end
$var reg 3 F" tag [2:0] $end
$var reg 1 G" valid $end
$var reg 1 H" write_access $end
$var integer 32 I" i [31:0] $end
$upscope $end
$scope module myins_cache $end
$var wire 32 J" PC [31:0] $end
$var wire 1 D clock $end
$var wire 1 K" hit $end
$var wire 1 E reset $end
$var wire 128 L" imem_read_data [127:0] $end
$var wire 1 3 imem_busy_wait $end
$var reg 1 A busy_wait $end
$var reg 32 M" cache_Instruction [31:0] $end
$var reg 128 N" cache_block [127:0] $end
$var reg 6 O" imem_address [5:0] $end
$var reg 1 2 imem_read $end
$var reg 3 P" index [2:0] $end
$var reg 32 Q" instruction [31:0] $end
$var reg 2 R" nextstate [1:0] $end
$var reg 2 S" offset [1:0] $end
$var reg 1 T" read_access $end
$var reg 2 U" state [1:0] $end
$var reg 5 V" tag [4:0] $end
$var reg 1 W" valid $end
$var integer 32 X" i [31:0] $end
$upscope $end
$scope module myins_memory $end
$var wire 6 Y" address [5:0] $end
$var wire 1 D clock $end
$var wire 1 2 read $end
$var reg 1 3 busywait $end
$var reg 1 Z" readaccess $end
$var reg 128 [" readdata [127:0] $end
$upscope $end
$upscope $end
$enddefinitions $end
#0
$dumpvars
bx ["
0Z"
bx Y"
bx X"
xW"
bx V"
b0 U"
xT"
bx S"
b1 R"
bx Q"
bx P"
bx O"
bx N"
bx M"
bx L"
xK"
bx J"
b1000 I"
xH"
xG"
bx F"
b0 E"
bx D"
xC"
bx B"
b0 A"
bx @"
bx ?"
bx >"
x="
bx <"
bx ;"
bx :"
x9"
bx 8"
b1000 7"
b100000000 6"
05"
bx 4"
03"
bx 2"
bx 1"
b1000 0"
bx /"
bx ."
bx -"
0,"
bx +"
bx *"
bx )"
bx ("
bx '"
bx &"
bx %"
bx $"
bx #"
bx ""
bx !"
bx ~
bx }
bx |
bx {
xz
xy
xx
xw
xv
xu
bx t
bx s
bx r
bx q
bx p
bx o
bx n
bx m
bx l
bx k
bx j
bx i
bx h
bx g
bx f
bx e
bx d
bx c
bx b
bx a
bx `
bx _
bx ^
bx ]
x\
bx [
bx Z
bx Y
bx X
bx W
xV
bx U
bx T
bx S
bx R
bx Q
bx P
bx O
bx N
bx M
0L
xK
xJ
0I
bx H
xG
xF
1E
0D
0C
bx B
0A
bx @
0?
0>
0=
bx <
bx ;
bx :
bx 9
bx 8
x7
bx 6
x5
bx 4
03
02
bx 1
b0 0
b0 /
b0 .
b0 -
b0 ,
b0 +
b0 *
b0 )
bx (
bx '
bx &
bx %
bx $
bx #
bx "
bx !
$end
#10
0\
0T"
0V
1F
b1000 X"
b11111111111111111111111111111100 9
b11111111111111111111111111111100 Z
b11111111111111111111111111111100 {
b11111111111111111111111111111100 J"
#20
b0 `
b0 ]
#40
1,"
b1000 /"
b1000 I"
1D
#50
b0 (
b0 '
b0 &
b0 %
b0 $
b0 #
b0 "
b0 !
1T"
b0 9
b0 Z
b0 {
b0 J"
b1000 X"
0E
#60
b100 `
b0 S"
b0 P"
0W"
b0 V"
b0 N"
b100 ]
#69
1Z"
13
12
0K"
#70
b0 Q"
#80
0D
#120
b0 4
b0 O"
b0 Y"
1A
b1 U"
1D
#160
0D
#200
1D
#240
0D
#280
1D
#320
0D
#360
1D
#400
0D
#440
1D
#480
0D
#520
1D
bx00001001 1
bx00001001 L"
bx00001001 ["
#560
0D
#600
1D
#640
0D
#680
1D
#720
0D
#760
1D
#800
0D
#840
1D
#880
0D
#920
1D
bx0000000000001001 1
bx0000000000001001 L"
bx0000000000001001 ["
#960
0D
#1000
1D
#1040
0D
#1080
1D
#1120
0D
#1160
1D
#1200
0D
#1240
1D
#1280
0D
#1320
1D
bx000000000000000000001001 1
bx000000000000000000001001 L"
bx000000000000000000001001 ["
#1360
0D
#1400
1D
#1440
0D
#1480
1D
#1520
0D
#1560
1D
#1600
0D
#1640
1D
#1680
0D
#1720
1D
bx00000101000000000000000000001001 1
bx00000101000000000000000000001001 L"
bx00000101000000000000000000001001 ["
#1760
0D
#1800
1D
#1840
0D
#1880
1D
#1920
0D
#1960
1D
#2000
0D
#2040
1D
#2080
0D
#2120
1D
bx0000000100000101000000000000000000001001 1
bx0000000100000101000000000000000000001001 L"
bx0000000100000101000000000000000000001001 ["
#2160
0D
#2200
1D
#2240
0D
#2280
1D
#2320
0D
#2360
1D
#2400
0D
#2440
1D
#2480
0D
#2520
1D
bx000000000000000100000101000000000000000000001001 1
bx000000000000000100000101000000000000000000001001 L"
bx000000000000000100000101000000000000000000001001 ["
#2560
0D
#2600
1D
#2640
0D
#2680
1D
#2720
0D
#2760
1D
#2800
0D
#2840
1D
#2880
0D
#2920
1D
bx00000001000000000000000100000101000000000000000000001001 1
bx00000001000000000000000100000101000000000000000000001001 L"
bx00000001000000000000000100000101000000000000000000001001 ["
#2960
0D
#3000
1D
#3040
0D
#3080
1D
#3120
0D
#3160
1D
#3200
0D
#3240
1D
#3280
0D
#3320
1D
bx0000010100000001000000000000000100000101000000000000000000001001 1
bx0000010100000001000000000000000100000101000000000000000000001001 L"
bx0000010100000001000000000000000100000101000000000000000000001001 ["
#3360
0D
#3400
1D
#3440
0D
#3480
1D
#3520
0D
#3560
1D
#3600
0D
#3640
1D
#3680
0D
#3720
1D
bx000000010000010100000001000000000000000100000101000000000000000000001001 1
bx000000010000010100000001000000000000000100000101000000000000000000001001 L"
bx000000010000010100000001000000000000000100000101000000000000000000001001 ["
#3760
0D
#3800
1D
#3840
0D
#3880
1D
#3920
0D
#3960
1D
#4000
0D
#4040
1D
#4080
0D
#4120
1D
bx00000000000000010000010100000001000000000000000100000101000000000000000000001001 1
bx00000000000000010000010100000001000000000000000100000101000000000000000000001001 L"
bx00000000000000010000010100000001000000000000000100000101000000000000000000001001 ["
#4160
0D
#4200
1D
#4240
0D
#4280
1D
#4320
0D
#4360
1D
#4400
0D
#4440
1D
#4480
0D
#4520
1D
bx0000000000000000000000010000010100000001000000000000000100000101000000000000000000001001 1
bx0000000000000000000000010000010100000001000000000000000100000101000000000000000000001001 L"
bx0000000000000000000000010000010100000001000000000000000100000101000000000000000000001001 ["
#4560
0D
#4600
1D
#4640
0D
#4680
1D
#4720
0D
#4760
1D
#4800
0D
#4840
1D
#4880
0D
#4920
1D
bx000010100000000000000000000000010000010100000001000000000000000100000101000000000000000000001001 1
bx000010100000000000000000000000010000010100000001000000000000000100000101000000000000000000001001 L"
bx000010100000000000000000000000010000010100000001000000000000000100000101000000000000000000001001 ["
#4960
0D
#5000
1D
#5040
0D
#5080
1D
#5120
0D
#5160
1D
#5200
0D
#5240
1D
#5280
0D
#5320
1D
bx00000000000010100000000000000000000000010000010100000001000000000000000100000101000000000000000000001001 1
bx00000000000010100000000000000000000000010000010100000001000000000000000100000101000000000000000000001001 L"
bx00000000000010100000000000000000000000010000010100000001000000000000000100000101000000000000000000001001 ["
#5360
0D
#5400
1D
#5440
0D
#5480
1D
#5520
0D
#5560
1D
#5600
0D
#5640
1D
#5680
0D
#5720
1D
bx0000000100000000000010100000000000000000000000010000010100000001000000000000000100000101000000000000000000001001 1
bx0000000100000000000010100000000000000000000000010000010100000001000000000000000100000101000000000000000000001001 L"
bx0000000100000000000010100000000000000000000000010000010100000001000000000000000100000101000000000000000000001001 ["
#5760
0D
#5800
1D
#5840
0D
#5880
1D
#5920
0D
#5960
1D
#6000
0D
#6040
1D
#6080
0D
#6120
1D
bx000000000000000100000000000010100000000000000000000000010000010100000001000000000000000100000101000000000000000000001001 1
bx000000000000000100000000000010100000000000000000000000010000010100000001000000000000000100000101000000000000000000001001 L"
bx000000000000000100000000000010100000000000000000000000010000010100000001000000000000000100000101000000000000000000001001 ["
#6160
0D
#6200
1D
#6240
0D
#6280
1D
#6320
0D
#6360
1D
#6400
0D
#6440
1D
#6480
0D
#6520
1D
b1011000000000000000100000000000010100000000000000000000000010000010100000001000000000000000100000101000000000000000000001001 1
b1011000000000000000100000000000010100000000000000000000000010000010100000001000000000000000100000101000000000000000000001001 L"
b1011000000000000000100000000000010100000000000000000000000010000010100000001000000000000000100000101000000000000000000001001 ["
#6530
b10 R"
0Z"
03
#6560
0D
#6600
02
b0 R"
b10 U"
1D
#6620
1W"
b1011000000000000000100000000000010100000000000000000000000010000010100000001000000000000000100000101000000000000000000001001 N"
#6629
1K"
0A
#6630
b1001 _
b1001 a
b1001 i
b1001 l
b1001 o
b1001 q
b100000 %"
b0 R
b0 !"
b1001 U
b1001 }
b0 T
b0 ~
b0 '"
b1 N
b1 #"
b1 )"
b0 P
b0 ""
b0 ("
0T"
b101000000000000000000001001 B
b101000000000000000000001001 S
b101000000000000000000001001 |
b101000000000000000000001001 M"
b101000000000000000000001001 Q"
#6640
0J
1z
1y
1v
1x
1u
1w
b1001 [
b1001 &"
b1001 6
b1001 M
b1001 h
b1001 t
b1001 8"
0H"
0C"
b0x00x d
b0x00x m
bx1xx1 b
bx1xx1 r
b1001 c
b1001 p
1I
1L
1G
1K
b0 W
b0 f
b0 $"
05
07
0D
#6650
b0 ^
b0 O
b0 +"
b0 :
b0 Q
b0 g
b0 k
b0 n
b0 s
b0 *"
b0 ;"
b100 X
#6660
b0 Y
b1001 b
b1001 r
b0 d
b0 m
#6670
b1001 e
b1001 j
#6680
bx 4
bx O"
bx Y"
b0 U"
1D
#6690
b0 ."
b1001 -"
1T"
0,"
b1001 !
b100 9
b100 Z
b100 {
b100 J"
#6700
b1000 `
b1 S"
b1000 ]
#6710
b1 _
b1 a
b1 i
b1 l
b1 o
b1 q
b100000 %"
b100 R
b100 !"
b1 U
b1 }
b1 T
b1 ~
b1 '"
0T"
b101000000010000000000000001 B
b101000000010000000000000001 S
b101000000010000000000000001 |
b101000000010000000000000001 M"
b101000000010000000000000001 Q"
b1001 :
b1001 Q
b1001 g
b1001 k
b1001 n
b1001 s
b1001 *"
b1001 ;"
#6720
b1 [
b1 &"
b1 6
b1 M
b1 h
b1 t
b1 8"
b1 c
b1 p
0I
b1 d
b1 m
0D
#6730
b1100 X
b1010 e
b1010 j
#6760
1D
#6770
1T"
b1 ."
b1000 9
b1000 Z
b1000 {
b1000 J"
1,"
b1 "
#6780
b1100 `
b10 S"
b1100 ]
#6790
b100000 %"
b0 R
b0 !"
b0 T
b0 ~
b0 '"
0T"
b1010000000000000000000000001 B
b1010000000000000000000000001 S
b1010000000000000000000000001 |
b1010000000000000000000000001 M"
b1 ^
b1010000000000000000000000001 Q"
b1 O
b1 +"
#6800
1H"
1C
1I
0L
0F
15
b11111111 Y
0D
#6810
b1 B"
0G"
0="
b0 F"
b0 <"
b0 >"
#6819
b10 A"
09"
#6820
b0 8
b0 H
b0 D"
#6840
13"
1?
b0 @
b0 2"
b0 ?"
1>
b10 A"
b10 E"
1D
#6880
0D
#6920
1D
#6960
0D
#7000
1D
#7040
0D
#7080
1D
#7120
0D
#7160
1D
#7200
0D
#7240
1D
#7280
0D
#7320
1D
bx00000000 <
bx00000000 4"
bx00000000 :"
#7360
0D
#7400
1D
#7440
0D
#7480
1D
#7520
0D
#7560
1D
#7600
0D
#7640
1D
#7680
0D
#7720
1D
bx0000000000000000 <
bx0000000000000000 4"
bx0000000000000000 :"
#7760
0D
#7800
1D
#7840
0D
#7880
1D
#7920
0D
#7960
1D
#8000
0D
#8040
1D
#8080
0D
#8120
1D
bx000000000000000000000000 <
bx000000000000000000000000 4"
bx000000000000000000000000 :"
#8160
0D
#8200
1D
#8240
0D
#8280
1D
#8320
0D
#8360
1D
#8400
0D
#8440
1D
#8480
0D
#8520
bx @
bx 2"
bx ?"
0>
b11 E"
b0 A"
1D
03"
0?
b0 <
b0 4"
b0 :"
#8540
1G"
#8549
19"
#8560
0D
#8600
0C
b0 E"
1D
#8610
1T"
b1100 9
b1100 Z
b1100 {
b1100 J"
#8620
b10000 `
b11 S"
b10000 ]
0H"
#8630
b100000 %"
b0 U
b0 }
b0 N
b0 #"
b0 )"
b1 P
b1 ""
b1 ("
0T"
b1011000000000000000100000000 B
b1011000000000000000100000000 S
b1011000000000000000100000000 |
b1011000000000000000100000000 M"
b1011000000000000000100000000 Q"
#8640
b0 _
b0 a
b0 i
b0 l
b0 o
b0 q
1H"
1C
0I
1F
15
0D
#8650
b1001 ^
1="
b100100000000 <"
b1001 O
b1001 +"
b1 :
b1 Q
b1 g
b1 k
b1 n
b1 s
b1 *"
b1 ;"
1J
0z
0y
0x
0w
0v
0u
b0 [
b0 &"
b0 6
b0 M
b0 h
b0 t
b0 8"
b0 d
b0 m
b0 c
b0 p
#8660
b0 B"
b1001 8
b1001 H
b1001 D"
b1 b
b1 r
#8670
b0 8
b0 H
b0 D"
b1 e
b1 j
#8680
0C
1D
#8690
1T"
b10000 9
b10000 Z
b10000 {
b10000 J"
#8700
b10100 `
b0 S"
b1 P"
0W"
b0 N"
b10100 ]
0H"
#8709
1Z"
13
12
b1 R"
0K"
#8710
b0 Q"
#8720
0D
#8760
b1 4
b1 O"
b1 Y"
1A
b1 U"
1D
#8800
0D
#8840
1D
#8880
0D
#8920
1D
#8960
0D
#9000
1D
#9040
0D
#9080
1D
#9120
0D
#9160
1D
b1011000000000000000100000000000010100000000000000000000000010000010100000001000000000000000100000101000000000000000000000001 1
b1011000000000000000100000000000010100000000000000000000000010000010100000001000000000000000100000101000000000000000000000001 L"
b1011000000000000000100000000000010100000000000000000000000010000010100000001000000000000000100000101000000000000000000000001 ["
#9200
0D
#9240
1D
#9280
0D
#9320
1D
#9360
0D
#9400
1D
#9440
0D
#9480
1D
#9520
0D
#9560
1D
#9600
0D
#9640
1D
#9680
0D
#9720
1D
#9760
0D
#9800
1D
#9840
0D
#9880
1D
#9920
0D
#9960
1D
b1011000000000000000100000000000010100000000000000000000000010000010100000001000000000000000100000101000000100000000000000001 1
b1011000000000000000100000000000010100000000000000000000000010000010100000001000000000000000100000101000000100000000000000001 L"
b1011000000000000000100000000000010100000000000000000000000010000010100000001000000000000000100000101000000100000000000000001 ["
#10000
0D
#10040
1D
#10080
0D
#10120
1D
#10160
0D
#10200
1D
#10240
0D
#10280
1D
#10320
0D
#10360
1D
b1011000000000000000100000000000010100000000000000000000000010000010100000001000000000000000100001000000000100000000000000001 1
b1011000000000000000100000000000010100000000000000000000000010000010100000001000000000000000100001000000000100000000000000001 L"
b1011000000000000000100000000000010100000000000000000000000010000010100000001000000000000000100001000000000100000000000000001 ["
#10400
0D
#10440
1D
#10480
0D
#10520
1D
#10560
0D
#10600
1D
#10640
0D
#10680
1D
#10720
0D
#10760
1D
#10800
0D
#10840
1D
#10880
0D
#10920
1D
#10960
0D
#11000
1D
#11040
0D
#11080
1D
#11120
0D
#11160
1D
#11200
0D
#11240
1D
#11280
0D
#11320
1D
#11360
0D
#11400
1D
#11440
0D
#11480
1D
#11520
0D
#11560
1D
b1011000000000000000100000000000010100000000000000000000000010000010100000011000000000000000100001000000000100000000000000001 1
b1011000000000000000100000000000010100000000000000000000000010000010100000011000000000000000100001000000000100000000000000001 L"
b1011000000000000000100000000000010100000000000000000000000010000010100000011000000000000000100001000000000100000000000000001 ["
#11600
0D
#11640
1D
#11680
0D
#11720
1D
#11760
0D
#11800
1D
#11840
0D
#11880
1D
#11920
0D
#11960
1D
b1011000000000000000100000000000010100000000000000000000000010000100000000011000000000000000100001000000000100000000000000001 1
b1011000000000000000100000000000010100000000000000000000000010000100000000011000000000000000100001000000000100000000000000001 L"
b1011000000000000000100000000000010100000000000000000000000010000100000000011000000000000000100001000000000100000000000000001 ["
#12000
0D
#12040
1D
#12080
0D
#12120
1D
#12160
0D
#12200
1D
#12240
0D
#12280
1D
#12320
0D
#12360
1D
#12400
0D
#12440
1D
#12480
0D
#12520
1D
#12560
0D
#12600
1D
#12640
0D
#12680
1D
#12720
0D
#12760
1D
#12800
0D
#12840
1D
#12880
0D
#12920
1D
#12960
0D
#13000
1D
#13040
0D
#13080
1D
#13120
0D
#13160
1D
b1011000000000000000100000000000010100000010000000000000000010000100000000011000000000000000100001000000000100000000000000001 1
b1011000000000000000100000000000010100000010000000000000000010000100000000011000000000000000100001000000000100000000000000001 L"
b1011000000000000000100000000000010100000010000000000000000010000100000000011000000000000000100001000000000100000000000000001 ["
#13200
0D
#13240
1D
#13280
0D
#13320
1D
#13360
0D
#13400
1D
#13440
0D
#13480
1D
#13520
0D
#13560
1D
b1011000000000000000100000000000000010000010000000000000000010000100000000011000000000000000100001000000000100000000000000001 1
b1011000000000000000100000000000000010000010000000000000000010000100000000011000000000000000100001000000000100000000000000001 L"
b1011000000000000000100000000000000010000010000000000000000010000100000000011000000000000000100001000000000100000000000000001 ["
#13600
0D
#13640
1D
#13680
0D
#13720
1D
#13760
0D
#13800
1D
#13840
0D
#13880
1D
#13920
0D
#13960
1D
b1011000000000000000100000010000000010000010000000000000000010000100000000011000000000000000100001000000000100000000000000001 1
b1011000000000000000100000010000000010000010000000000000000010000100000000011000000000000000100001000000000100000000000000001 L"
b1011000000000000000100000010000000010000010000000000000000010000100000000011000000000000000100001000000000100000000000000001 ["
#14000
0D
#14040
1D
#14080
0D
#14120
1D
#14160
0D
#14200
1D
#14240
0D
#14280
1D
#14320
0D
#14360
1D
b1011000000000000010000000010000000010000010000000000000000010000100000000011000000000000000100001000000000100000000000000001 1
b1011000000000000010000000010000000010000010000000000000000010000100000000011000000000000000100001000000000100000000000000001 L"
b1011000000000000010000000010000000010000010000000000000000010000100000000011000000000000000100001000000000100000000000000001 ["
#14400
0D
#14440
1D
#14480
0D
#14520
1D
#14560
0D
#14600
1D
#14640
0D
#14680
1D
#14720
0D
#14760
1D
#14800
0D
#14840
1D
#14880
0D
#14920
1D
#14960
0D
#15000
1D
#15040
0D
#15080
1D
#15120
0D
#15160
1D
#15170
b10 R"
0Z"
03
#15200
0D
#15240
02
b0 R"
b10 U"
1D
#15260
1W"
b1011000000000000010000000010000000010000010000000000000000010000100000000011000000000000000100001000000000100000000000000001 N"
#15269
1K"
0A
#15270
b1 _
b1 a
b1 i
b1 l
b1 o
b1 q
b100000 %"
b1000 R
b1000 !"
b1 U
b1 }
b10 T
b10 ~
b10 '"
b1 N
b1 #"
b1 )"
b0 P
b0 ""
b0 ("
0T"
b1000000000100000000000000001 B
b1000000000100000000000000001 S
b1000000000100000000000000001 |
b1000000000100000000000000001 M"
b1000000000100000000000000001 Q"
#15280
0J
1z
1y
1x
1w
1v
1u
b1 6
b1 M
b1 h
b1 t
b1 8"
b1001 _
b1001 a
b1001 i
b1001 l
b1001 o
b1001 q
1C"
1C
b1 d
b1 m
b1 c
b1 p
1I
1L
0F
0K
17
05
0D
#15290
b1 _
b1 a
b1 i
b1 l
b1 o
b1 q
b1 ^
b1 B"
b100100000001 <"
b1 O
b1 +"
b1001 :
b1001 Q
b1001 g
b1001 k
b1001 n
b1001 s
b1001 *"
b1001 ;"
b1001 6
b1001 M
b1001 h
b1001 t
b1001 8"
b1001 b
b1001 r
b1001 c
b1001 p
#15300
0G"
0="
b0 <"
b10 >"
b1 6
b1 M
b1 h
b1 t
b1 8"
b1001 [
b1001 &"
b1 c
b1 p
b1001 8
b1001 H
b1001 D"
#15309
b10 A"
09"
#15310
b1 A"
1G"
1="
b100100000001 <"
b0 >"
b0 [
b0 &"
b0 8
b0 H
b0 D"
b1010 e
b1010 j
#15319
b0 A"
19"
#15320
bx 4
bx O"
bx Y"
b1001 [
b1001 &"
0C
0C"
b0 U"
b1001 8
b1001 H
b1001 D"
1D
#15330
1T"
0,"
b1001 #
b10100 9
b10100 Z
b10100 {
b10100 J"
#15340
b11000 `
b1 S"
b11000 ]
#15350
b100000 %"
b1100 R
b1100 !"
b11 T
b11 ~
b11 '"
0T"
b1000000000110000000000000001 B
b1000000000110000000000000001 S
b1000000000110000000000000001 |
b1000000000110000000000000001 M"
b1000000000110000000000000001 Q"
#15360
1C"
1C
0I
17
0D
#15400
0C
0C"
1D
#15410
1T"
b11000 9
b11000 Z
b11000 {
b11000 J"
1,"
b1001 $
#15420
b11100 `
b10 S"
b11100 ]
#15430
b100000 %"
b10000 R
b10000 !"
b100 T
b100 ~
b100 '"
0T"
b1000001000000000000000001 B
b1000001000000000000000001 S
b1000001000000000000000001 |
b1000001000000000000000001 M"
b1000001000000000000000001 Q"
#15440
b11111111 _
b11111111 a
b11111111 i
b11111111 l
b11111111 o
b11111111 q
b11111111 ^
b1010 [
b1010 &"
b1010 6
b1010 M
b1010 h
b1010 t
b1010 8"
1I
0G
1K
b1 W
b1 f
b1 $"
07
0D
#15450
b1001 d
b1001 m
b11111111 b
b11111111 r
b11111111 c
b11111111 p
b101100 X
#15460
0v
0u
b1000 [
b1000 &"
b1000 6
b1000 M
b1000 h
b1000 t
b1000 8"
b1000 e
b1000 j
#15480
1D
#15490
1T"
0,"
b1000 %
b11100 9
b11100 Z
b11100 {
b11100 J"
#15500
b100000 `
b11 S"
b100000 ]
#15510
b100000 %"
b0 R
b0 !"
b10 U
b10 }
b0 T
b0 ~
b0 '"
b10 N
b10 #"
b10 )"
b100 P
b100 ""
b100 ("
0T"
b1011000000000000010000000010 B
b1011000000000000010000000010 S
b1011000000000000010000000010 |
b1011000000000000010000000010 M"
b1011000000000000010000000010 Q"
#15520
1u
1v
b11111111 [
b11111111 &"
b10 _
b10 a
b10 i
b10 l
b10 o
b10 q
b1 ^
1H"
1C
b11111111 6
b11111111 M
b11111111 h
b11111111 t
b11111111 8"
0I
0L
1F
1G
15
b0 W
b0 f
b0 $"
0D
