Lab 06_Part2/cpu_wavedata.vcd
$date
	Wed Nov 25 10:30:48 2020
$end
$version
	Icarus Verilog
$end
$timescale
	100ps
$end
$scope module cpu_tb $end
$scope module mycpu $end
$scope module reg_f $end
$var reg 8 ! \registers[0] [7:0] $end
$upscope $end
$upscope $end
$upscope $end
$scope module cpu_tb $end
$scope module mycpu $end
$scope module reg_f $end
$var reg 8 " \registers[1] [7:0] $end
$upscope $end
$upscope $end
$upscope $end
$scope module cpu_tb $end
$scope module mycpu $end
$scope module reg_f $end
$var reg 8 # \registers[2] [7:0] $end
$upscope $end
$upscope $end
$upscope $end
$scope module cpu_tb $end
$scope module mycpu $end
$scope module reg_f $end
$var reg 8 $ \registers[3] [7:0] $end
$upscope $end
$upscope $end
$upscope $end
$scope module cpu_tb $end
$scope module mycpu $end
$scope module reg_f $end
$var reg 8 % \registers[4] [7:0] $end
$upscope $end
$upscope $end
$upscope $end
$scope module cpu_tb $end
$scope module mycpu $end
$scope module reg_f $end
$var reg 8 & \registers[5] [7:0] $end
$upscope $end
$upscope $end
$upscope $end
$scope module cpu_tb $end
$scope module mycpu $end
$scope module reg_f $end
$var reg 8 ' \registers[6] [7:0] $end
$upscope $end
$upscope $end
$upscope $end
$scope module cpu_tb $end
$scope module mycpu $end
$scope module reg_f $end
$var reg 8 ( \registers[7] [7:0] $end
$upscope $end
$upscope $end
$upscope $end
$scope module cpu_tb $end
$scope module d_memory $end
$var reg 8 ) \memory_array[0] [7:0] $end
$upscope $end
$upscope $end
$scope module cpu_tb $end
$scope module d_memory $end
$var reg 8 * \memory_array[1] [7:0] $end
$upscope $end
$upscope $end
$scope module cpu_tb $end
$scope module d_memory $end
$var reg 8 + \memory_array[2] [7:0] $end
$upscope $end
$upscope $end
$scope module cpu_tb $end
$scope module d_memory $end
$var reg 8 , \memory_array[3] [7:0] $end
$upscope $end
$upscope $end
$scope module cpu_tb $end
$scope module d_memory $end
$var reg 8 - \memory_array[4] [7:0] $end
$upscope $end
$upscope $end
$scope module cpu_tb $end
$scope module d_memory $end
$var reg 8 . \memory_array[5] [7:0] $end
$upscope $end
$upscope $end
$scope module cpu_tb $end
$scope module d_memory $end
$var reg 8 / \memory_array[6] [7:0] $end
$upscope $end
$upscope $end
$scope module cpu_tb $end
$scope module d_memory $end
$var reg 8 0 \memory_array[7] [7:0] $end
$upscope $end
$upscope $end
$scope module cpu_tb $end
$scope module d_memory $end
$var reg 8 1 \memory_array[8] [7:0] $end
$upscope $end
$upscope $end
$scope module cpu_tb $end
$scope module d_memory $end
$var reg 8 2 \memory_array[9] [7:0] $end
$upscope $end
$upscope $end
$scope module cpu_tb $end
$scope module d_memory $end
$var reg 8 3 \memory_array[10] [7:0] $end
$upscope $end
$upscope $end
$scope module cpu_tb $end
$scope module d_cache $end
$var reg 32 4 \cache_mem[0] [31:0] $end
$upscope $end
$upscope $end
$scope module cpu_tb $end
$scope module d_cache $end
$var reg 32 5 \cache_mem[1] [31:0] $end
$upscope $end
$upscope $end
$scope module cpu_tb $end
$scope module d_cache $end
$var reg 32 6 \cache_mem[2] [31:0] $end
$upscope $end
$upscope $end
$scope module cpu_tb $end
$scope module d_cache $end
$var reg 32 7 \cache_mem[3] [31:0] $end
$upscope $end
$upscope $end
$scope module cpu_tb $end
$scope module d_cache $end
$var reg 32 8 \cache_mem[4] [31:0] $end
$upscope $end
$upscope $end
$scope module cpu_tb $end
$scope module d_cache $end
$var reg 32 9 \cache_mem[5] [31:0] $end
$upscope $end
$upscope $end
$scope module cpu_tb $end
$scope module d_cache $end
$var reg 32 : \cache_mem[6] [31:0] $end
$upscope $end
$upscope $end
$scope module cpu_tb $end
$scope module d_cache $end
$var reg 32 ; \cache_mem[7] [31:0] $end
$upscope $end
$upscope $end
$scope module cpu_tb $end
$scope module mycpu $end
$var wire 1 < BUSY_WAIT $end
$var wire 1 = CLK $end
$var wire 32 > INSTRUCTION [31:0] $end
$var wire 8 ? READ_DATA [7:0] $end
$var wire 1 @ RESET $end
$var wire 1 A SELECT3 $end
$var wire 1 B temp1 $end
$var wire 1 C isJump $end
$var wire 1 D isBeq $end
$var wire 1 E ZERO $end
$var wire 1 F SELECT4 $end
$var wire 1 G SELECT2 $end
$var wire 1 H SELECT1 $end
$var wire 8 I RESULT [7:0] $end
$var wire 32 J PC_Reg [31:0] $end
$var wire 8 K OUT2 [7:0] $end
$var wire 8 L OUT1 [7:0] $end
$var wire 32 M Jump_Target [31:0] $end
$var wire 8 N IN [7:0] $end
$var wire 32 O Extended_Val [31:0] $end
$var wire 8 P COMP_OUTPUT [7:0] $end
$var reg 8 Q MUX_1_OUT [7:0] $end
$var reg 8 R MUX_2_OUT [7:0] $end
$var reg 32 S PC [31:0] $end
$var reg 1 T READ_SIGNAL $end
$var reg 3 U SELECT [2:0] $end
$var reg 1 V WRITE $end
$var reg 1 W WRITE_SIGNAL $end
$scope module alu_ $end
$var wire 8 X DATA2 [7:0] $end
$var wire 3 Y SELECT [2:0] $end
$var wire 8 Z or_o [7:0] $end
$var wire 8 [ forward_o [7:0] $end
$var wire 8 \ and_o [7:0] $end
$var wire 8 ] add_o [7:0] $end
$var wire 1 E ZERO $end
$var wire 8 ^ DATA1 [7:0] $end
$var reg 8 _ RESULT [7:0] $end
$scope module add_ $end
$var wire 8 ` DATA2 [7:0] $end
$var wire 8 a RESULT [7:0] $end
$var wire 8 b DATA1 [7:0] $end
$upscope $end
$scope module and_ $end
$var wire 8 c DATA2 [7:0] $end
$var wire 8 d RESULT [7:0] $end
$var wire 8 e DATA1 [7:0] $end
$upscope $end
$scope module forward $end
$var wire 8 f DATA2 [7:0] $end
$var wire 8 g RESULT [7:0] $end
$upscope $end
$scope module or_ $end
$var wire 8 h DATA2 [7:0] $end
$var wire 8 i RESULT [7:0] $end
$var wire 8 j DATA1 [7:0] $end
$upscope $end
$scope module zero_m $end
$var wire 8 k RESULT [7:0] $end
$var wire 1 E ZERO $end
$var wire 1 l a $end
$var wire 1 m b $end
$var wire 1 n c $end
$var wire 1 o d $end
$var wire 1 p e $end
$var wire 1 q f $end
$upscope $end
$upscope $end
$scope module extend_bits_m $end
$var wire 8 r Offset [7:0] $end
$var reg 32 s Extended_Val [31:0] $end
$upscope $end
$scope module jump_target_adder_m $end
$var wire 32 t Extended_Val [31:0] $end
$var wire 32 u PC_Reg [31:0] $end
$var wire 32 v Jump_Target [31:0] $end
$upscope $end
$scope module pc_adder $end
$var wire 32 w PC [31:0] $end
$var reg 32 x PC_Reg [31:0] $end
$upscope $end
$scope module reg_f $end
$var wire 1 < BUSY_WAIT $end
$var wire 1 = CLK $end
$var wire 8 y IN [7:0] $end
$var wire 3 z INADDRESS [2:0] $end
$var wire 3 { OUT1ADDRESS [2:0] $end
$var wire 3 | OUT2ADDRESS [2:0] $end
$var wire 1 @ RESET $end
$var wire 1 V WRITE $end
$var reg 8 } OUT1 [7:0] $end
$var reg 8 ~ OUT2 [7:0] $end
$var integer 32 !" i [31:0] $end
$var integer 32 "" idx [31:0] $end
$upscope $end
$scope module two_comp $end
$var wire 8 #" COMP_INPUT [7:0] $end
$var wire 8 $" COMP_OUTPUT [7:0] $end
$upscope $end
$upscope $end
$upscope $end
$scope module cpu_tb $end
$scope module d_memory $end
$var wire 6 %" address [5:0] $end
$var wire 1 = clock $end
$var wire 1 &" read $end
$var wire 1 @ reset $end
$var wire 1 '" write $end
$var wire 32 (" writedata [31:0] $end
$var reg 1 )" busywait $end
$var reg 1 *" readaccess $end
$var reg 32 +" readdata [31:0] $end
$var reg 1 ," writeaccess $end
$var integer 32 -" i [31:0] $end
$var integer 32 ." idx [31:0] $end
$upscope $end
$upscope $end
$scope module cpu_tb $end
$scope module d_cache $end
$var wire 1 = clock $end
$var wire 1 /" hit $end
$var wire 1 @ reset $end
$var wire 8 0" write_data [7:0] $end
$var wire 1 W write $end
$var wire 1 T read $end
$var wire 32 1" mem_read_data [31:0] $end
$var wire 1 )" mem_busy_wait $end
$var wire 8 2" address [7:0] $end
$var reg 1 < busy_wait $end
$var reg 32 3" cache_block [31:0] $end
$var reg 1 4" dirty $end
$var reg 3 5" index [2:0] $end
$var reg 6 6" mem_address [5:0] $end
$var reg 1 &" mem_read $end
$var reg 1 '" mem_write $end
$var reg 32 7" mem_write_data [31:0] $end
$var reg 3 8" next_state [2:0] $end
$var reg 2 9" offset [1:0] $end
$var reg 1 :" read_access $end
$var reg 8 ;" read_data [7:0] $end
$var reg 3 <" state [2:0] $end
$var reg 3 =" tag [2:0] $end
$var reg 1 >" valid $end
$var reg 1 ?" write_access $end
$var integer 32 @" i [31:0] $end
$var integer 32 A" idx [31:0] $end
$upscope $end
$upscope $end
$enddefinitions $end
#0
$dumpvars
b1000 A"
b1000 @"
0?"
x>"
bx ="
b0 <"
bx ;"
0:"
bx 9"
b0 8"
bx 7"
bx 6"
bx 5"
x4"
bx 3"
bx 2"
bx 1"
bx 0"
x/"
b1011 ."
b100000000 -"
0,"
bx +"
0*"
0)"
bx ("
0'"
0&"
bx %"
bx $"
bx #"
b1000 ""
bx !"
bx ~
bx }
bx |
bx {
bx z
bx y
bx x
bx w
bx v
bx u
bx t
bx s
bx r
xq
xp
xo
xn
xm
xl
bx k
bx j
bx i
bx h
bx g
bx f
bx e
bx d
bx c
bx b
bx a
bx `
bx _
bx ^
bx ]
bx \
bx [
bx Z
bx Y
bx X
0W
xV
bx U
0T
bx S
bx R
bx Q
bx P
bx O
bx N
bx M
bx L
bx K
bx J
bx I
xH
xG
xF
xE
xD
xC
xB
xA
1@
bx ?
bx >
0=
0<
bx ;
bx :
bx 9
bx 8
bx 7
bx 6
bx 5
bx 4
b0 3
b0 2
b0 1
b0 0
b0 /
b0 .
b0 -
b0 ,
b0 +
b0 *
b0 )
bx (
bx '
bx &
bx %
bx $
bx #
bx "
bx !
$end
#10
b0 ;
b0 :
b0 9
b0 8
b0 7
b0 6
b0 5
b0 4
#40
b1000 @"
b1000 !"
1=
#50
b0 ;
b0 :
b0 9
b0 8
b0 7
b0 6
b0 5
b0 4
b0 (
b0 '
b0 &
b0 %
b0 $
b0 #
b0 "
b0 !
b0 S
b0 w
0V
#60
b100 J
b100 u
b100 x
#70
b0 O
b0 s
b0 t
0A
0B
b0 r
0C
0D
b0 z
b0 {
b1 |
b1001 >
#80
b0 U
b0 Y
b1001 R
b1001 X
b1001 `
b1001 c
b1001 f
b1001 h
0G
0H
0F
0=
#90
b0 Q
b0 K
b0 ~
b0 #"
b0 L
b0 ^
b0 b
b0 e
b0 j
b0 }
b0 0"
0E
1q
1p
1m
1o
1l
1n
b1001 N
b1001 y
b1001 I
b1001 _
b1001 k
b1001 2"
b0x00x \
b0x00x d
bx1xx1 Z
bx1xx1 i
b1001 [
b1001 g
b100 M
b100 v
1V
#100
b0 P
b0 $"
b1001 Z
b1001 i
b0 \
b0 d
0@
#110
b1001 ]
b1001 a
#120
1=
#130
b1001 !
b100 S
b100 w
0V
#140
b1000 J
b1000 u
b1000 x
#150
b1001 L
b1001 ^
b1001 b
b1001 e
b1001 j
b1001 }
b1001 0"
b100 O
b100 s
b100 t
b1 R
b1 X
b1 `
b1 c
b1 f
b1 h
b1 r
b1 z
b10000000000000001 >
#160
b1 N
b1 y
b1 I
b1 _
b1 k
b1 2"
b1 \
b1 d
b1 [
b1 g
0=
#170
b1100 M
b1100 v
b1010 ]
b1010 a
1V
#200
1=
#210
b1000 S
b1000 w
b1 "
0V
#220
b1100 J
b1100 u
b1100 x
#230
b1 Q
b1 K
b1 ~
b1 #"
1?"
1<
b0 O
b0 s
b0 t
1W
b0 r
b0 z
b1010000000000000000000000001 >
#240
b1 9"
0>"
04"
b0 3"
b0 5"
b11111111 P
b11111111 $"
1G
0=
#249
b10 8"
0/"
#250
b0 ?
b0 ;"
#280
1*"
1)"
bx000 %"
bx000 6"
1&"
b10 8"
b10 <"
1=
