Lab 06_Part2/data_cache.vcd
$date
	Thu Nov 19 16:26:38 2020
$end
$version
	Icarus Verilog
$end
$timescale
	100ps
$end
$scope module testbench $end
$scope module d_cache $end
$var reg 32 ! \cache_mem[0] [31:0] $end
$upscope $end
$upscope $end
$scope module testbench $end
$scope module d_cache $end
$var reg 32 " \cache_mem[1] [31:0] $end
$upscope $end
$upscope $end
$scope module testbench $end
$scope module d_cache $end
$var reg 32 # \cache_mem[2] [31:0] $end
$upscope $end
$upscope $end
$scope module testbench $end
$scope module d_cache $end
$var reg 32 $ \cache_mem[3] [31:0] $end
$upscope $end
$upscope $end
$scope module testbench $end
$scope module d_cache $end
$var reg 32 % \cache_mem[4] [31:0] $end
$upscope $end
$upscope $end
$scope module testbench $end
$scope module d_cache $end
$var reg 32 & \cache_mem[5] [31:0] $end
$upscope $end
$upscope $end
$scope module testbench $end
$scope module d_cache $end
$var reg 32 ' \cache_mem[6] [31:0] $end
$upscope $end
$upscope $end
$scope module testbench $end
$scope module d_cache $end
$var reg 32 ( \cache_mem[7] [31:0] $end
$upscope $end
$upscope $end
$scope module testbench $end
$scope module d_cache $end
$var wire 8 ) address [7:0] $end
$var wire 32 * cache_block [31:0] $end
$var wire 1 + cache_dirty $end
$var wire 3 , cache_tag [2:0] $end
$var wire 1 - cache_valid $end
$var wire 1 . clock $end
$var wire 1 / dirty $end
$var wire 1 0 hit $end
$var wire 1 1 mem_busywait $end
$var wire 32 2 mem_readdata [31:0] $end
$var wire 1 3 read $end
$var wire 1 4 reset $end
$var wire 1 5 write $end
$var wire 8 6 write_data [7:0] $end
$var wire 3 7 tag [2:0] $end
$var wire 1 8 offset $end
$var wire 3 9 index [2:0] $end
$var reg 1 : busywait $end
$var reg 6 ; mem_address [5:0] $end
$var reg 1 < mem_read $end
$var reg 1 = mem_write $end
$var reg 32 > mem_writedata [31:0] $end
$var reg 3 ? next_state [2:0] $end
$var reg 8 @ read_data [7:0] $end
$var reg 8 A select_word [7:0] $end
$var reg 3 B state [2:0] $end
$var integer 32 C i [31:0] $end
$var integer 32 D idx [31:0] $end
$upscope $end
$upscope $end
$enddefinitions $end
#0
$dumpvars
b1000 D
b100000 C
b0 B
bx A
bx @
b0 ?
b0xxxxxxxx >
0=
0<
bx ;
0:
bx 9
x8
bx 7
bx 6
x5
14
x3
bx 2
x1
x0
z/
0.
x-
bx ,
x+
bx *
bx )
b0 (
b0 '
b0 &
b0 %
b0 $
b0 #
b0 "
b0 !
$end
#40
b0 (
b0 '
b0 &
b0 %
b0 $
b0 #
b0 "
b0 !
b100000 C
1.
#70
04
#80
0.
#120
1.
#160
0.
#180
18
b10 9
b100 7
01
b100 6
b10001001 )
15
03
#190
b0 A
0+
0-
b0 *
#199
00
#200
1.
#240
0.
#280
1.
#290
b110 9
b100100 6
b10011011 )
#320
0.
#360
1.
#400
0.
#440
1.
#450
b10 9
b10001001 )
05
13
